98.953370 
 0818CS161221_tarun_puraattendence marked: have a nice day......
Today's date: 
2020-04-21 18:12:27.38688794.851194 
 0818CS161232_vishal_pawarattendence marked: have a nice day......
Today's date: 
2020-04-21 18:13:08.17730892.923045 
 0818CS161221_tarun_puraattendence marked: have a nice day......
Today's date: 
2020-04-21 18:44:15.736327